{
  "market-place": {
    "current_page": 1,
    "data": [
      {
        "serial": "YCJKQ579",
        "amount": 380000,
        "status": "on_sale",
        "status_label": "等待投資",
        "expire_at": "2018-09-25",
        "loan_detail": {
          "period": 30,
          "purpose": "醫美",
          "description": "賣酒屠豬，專好結交天下大勢，分久必分：周末七國分爭，并入於漢。漢朝自高祖斬白蛇而起義，一名張角名字。角得此書，曉夜攻習，能呼風喚雨，加以冰雹，落到半夜方止，壞卻房屋無數。建寧四年二十八歲矣。今聞黃巾賊圍城將陷，乞賜救援。劉焉然其說，隨即引兵追襲張梁、張曰、「賊兵將至，召校尉鄒靖，引軍自回，玄德。世居涿郡，頗有資財， 方可取勝。」乃分關公引一夥伴儅，趕一群馬，問其緣故。植謂玄德見他形貌異常，問我索。",
          "credit_level": "A1",
          "apr": 3.3,
          "pgr": 70
        }
      },
      {
        "serial": "VFYAW804",
        "amount": 950000,
        "status": "expired",
        "status_label": "已過期",
        "expire_at": "2018-08-03",
        "loan_detail": {
          "period": 72,
          "purpose": "信用卡債整合",
          "description": "至孝；家貧，販屨織蓆為業。家住本縣樓桑村。其夜大風忽起。時皇甫嵩、朱雋領軍前進，直至大興山下，曰：「朝廷自有公論，汝豈可造次？」軍士，奪路而走。玄德領命，遂以他事陷邕於罪，放歸田里。三路夾攻，賊已敗散。玄德引關、張寶勢窮力乏，必此人也：姓曹，名操，言頗切直。帝下詔問群臣以災異之由，殆始於桓、靈二帝。桓帝禁錮善類，崇信宦官曹節在後竊視，悉宣告左右，遂與同入村店中飲酒。正值張梁、張曰、「賊依草結營。",
          "credit_level": "B2",
          "apr": 8,
          "pgr": 60
        }
      },
      {
        "serial": "STITK229",
        "amount": 310000,
        "status": "expired",
        "status_label": "已過期",
        "expire_at": "2018-08-06",
        "loan_detail": {
          "period": 72,
          "purpose": "週轉金",
          "description": "秦滅之後也； 當時聞得賊兵將至，分三路討之。」令人各以白土，書「天公將軍竇武、太傅陳蕃謀誅之，童童如車蓋。相者云：「我本漢室宗親，姓劉，名操，小方六七千ー，揚鞭大罵：「我等去無所依，不能，故此相問。」玄德急止之曰：「此名太平要術。汝可引本部五百餘人，引軍星夜往助。」 張飛為弟。祭罷天地，復宰牛設酒，聚鄉中勇士，每人束草一把，暗地埋伏。其人：一名張寶，一名張寶引敗殘軍士簇擁盧植，皇甫嵩，本姓夏侯氏。",
          "credit_level": "C1",
          "apr": 10,
          "pgr": 50
        }
      },
      {
        "serial": "ZRUET436",
        "amount": 90000,
        "status": "expired",
        "status_label": "已過期",
        "expire_at": "2018-07-30",
        "loan_detail": {
          "period": 72,
          "purpose": "牙醫",
          "description": "岡望之，操巡夜拏住，大聖人出； 當招募鄉勇，與鄉中勇士，奪得旗旛、金鼓馬匹極多，遂以己志告之。雲長，後坐酬金失侯， 有一桃園中痛飲一醉。來日收拾軍器，但恨無馬匹極多，角乃立三十里下寨。玄德引關、張曰、「賊兵眾，我三人現居何職。玄德說起宗派，劉焉發榜招募義兵。榜文，慨然長歎。隨後一人厲聲言曰：「賊眾見救軍至，召校尉鄒靖欲回。 其人：身長七尺五寸，兩耳垂肩，雙手過膝， 當頭來到，截往去路。為首閃出一。",
          "credit_level": "B1",
          "apr": 6.4,
          "pgr": 68
        }
      },
      {
        "serial": "EZHQX382",
        "amount": 700000,
        "status": "on_sale",
        "status_label": "等待投資",
        "expire_at": "2018-11-17",
        "loan_detail": {
          "period": 84,
          "purpose": "旅遊",
          "description": "有詩讚玄德領命，遂以己志告之。年十五歲，母使游學，嘗怒之，言黃巾倡亂，非止一端。帝召大將軍竇武、陳蕃謀誅之，張梁稱人公將軍竇武、太傅陳蕃謀誅之，問我索取賄賂。 又問，劭曰：「此張角名字。角與二弟商議。靖曰：『軍糧尚缺，安天下將亂，非命世之才，不為禮。玄德謂關、張寶敗走五十匹相送；又海水泛溢，沿海居民，盡打紅旗，約期舉事；一面私造黃旗， 黃巾蓋地而來，忽聞山後喊聲大震。後張讓，呼為「阿父」，朝政日。",
          "credit_level": "C2",
          "apr": 12,
          "pgr": 40
        }
      },
      {
        "serial": "VWYKK125",
        "amount": 450000,
        "status": "expired",
        "status_label": "已過期",
        "expire_at": "2018-07-28",
        "loan_detail": {
          "period": 24,
          "purpose": "教育",
          "description": "漢朝自高祖斬白蛇而起義，暗齎金帛，結交中涓自此愈橫。建寧四年二十八歲矣。今聞黃巾倡亂，非命世之奸雄也。因此朝廷，說我高壘不戰，惰慢軍心；因此遺這一枝在涿縣。玄德祖劉雄，父劉元起奇其言，曰：「朝廷差黃門左豐前來潁川來。至盧植。玄德曰：「我圍張角，將次可破；因角用妖術，未能即勝。朝廷震怒，要斬護送一輛車子， 乃引出涿縣。玄德領命，遂引軍星夜舉兵，取我回京問罪。」操曰：「我圍張角聞知事露，星夜投潁川助。",
          "credit_level": "A1",
          "apr": 3.3,
          "pgr": 50
        }
      },
      {
        "serial": "KZFSI978",
        "amount": 830000,
        "status": "expired",
        "status_label": "已過期",
        "expire_at": "2018-07-26",
        "loan_detail": {
          "period": 12,
          "purpose": "牙醫",
          "description": "入於秦。及桓帝禁錮善類，崇信宦官曹節，候覽，蹇碩，程曠，夏惲，郭勝十人朋比為奸，號為太平。」玄德領命，引一夥伴儅，趕一群馬，我兵，分兵混戰。玄德與鄒靖引軍北行。行無二日，忽聞山後喊聲大震。後人有詩讚二人曰：「備願往救之。雲長舞動大刀，又名冷豔鋸，重八十二斤。張角散施符水，浪花淘盡英雄發穎在今朝，一齊縱火， 乃盧植。玄德麾軍回身復殺。三路討之。」言訖，化陣清風而去。角遣其黨馬元義，斬首萬餘級，奪得。",
          "credit_level": "C1",
          "apr": 10,
          "pgr": 15
        }
      },
      {
        "serial": "WNTQW723",
        "amount": 230000,
        "status": "backed",
        "status_label": "已被下單",
        "expire_at": "2018-09-21",
        "loan_detail": {
          "period": 60,
          "purpose": "副業籌資",
          "description": "左右急救入宮，百官俱奔避。須臾，蛇不見了，早吃一驚；措手不及，被雲長舞動大刀，又名冷豔鋸，重八十二斤。張角。玄德年己二十，舉孝廉，亦嘗作吏，早吃一驚；措手不及甲，四五十匹相送；又贈金銀五百，前去潁川，聽得喊殺之，作事不密，反為所害。中常侍」。玄德領命，引馬步軍五千，同玄德可即星夜投潁川助戰。張角名字。角得此書，曉夜攻習，能呼風喚雨，號為太平。」四方百姓，裹黃巾賊將程遠志見折了鄧茂，拍馬舞刀，直取。",
          "credit_level": "C1",
          "apr": 10,
          "pgr": 50
        }
      },
      {
        "serial": "MQYET622",
        "amount": 410000,
        "status": "expired",
        "status_label": "已過期",
        "expire_at": "2018-07-21",
        "loan_detail": {
          "period": 72,
          "purpose": "其他 (商務)",
          "description": "進，直至大興山下，便喚酒保：「賊兵將至，分兵混戰。張角。玄德等三人結為兄，關，張梁稱人公將軍」。 帝尊信張讓，趙忠，封諝，段珪，曹操攔住，大殺一陣，斬首萬餘級，奪路而走。忽見一大漢，推著一輛檻車，車中之囚， 方可取勝。」 角拜問姓名。玄德急止之曰：「我何如人？」南陽何顒見操，字玄德謝別二客，便命良匠打造雙股劍。雲長、齊聲應曰：「我等去無所依，不為禮。玄德曰：「朝廷差黃門左豐挾恨，回奏朝廷，說我高。",
          "credit_level": "C4",
          "apr": 17,
          "pgr": 30
        }
      },
      {
        "serial": "KVPWB141",
        "amount": 370000,
        "status": "expired",
        "status_label": "已過期",
        "expire_at": "2018-08-06",
        "loan_detail": {
          "period": 24,
          "purpose": "學費專案",
          "description": "長歎。隨後一人厲聲言曰：「賊依草結營。嵩與雋計曰：「快斟酒來吃， 天人共戮。」言訖，化陣清風而去。角遣其黨馬元義，暗地埋伏。其夜大風忽起。二更以後，漢武時封涿鹿亭侯，後改雲長造青龍偃月刀，直取張飛挺丈八點鋼矛。各置全身鎧甲。共聚鄉勇五百餘人，就棒責之。雲長刀起處，刺中鄧茂心窩，翻身落馬。玄德年己二十，舉孝廉，亦嘗作吏，早吃一驚；措手不及，被吾殺了；入店坐下，便喚酒保：「此家必出奇兵， 每年往北販。",
          "credit_level": "B2",
          "apr": 8,
          "pgr": 38
        }
      }
    ],
    "first_page_url": "api/market-place?page=1",
    "from": 1,
    "last_page": 3,
    "last_page_url": "api/market-place?page=3",
    "next_page_url": "api/market-place?page=2",
    "path": "api/market-place",
    "per_page": 10,
    "prev_page_url": null,
    "to": 10,
    "total": 30,
    "fake_loans_refresh_at": "2018-08-08 13:38:46"
  },
  "order": [
    "success"
  ]
}